…
  
</table>
</div>

# likert plot

``` r
example_likert <- diamonds %>% 
  ggois_likert_chart(cut, clarity)


example_likert
#> # A tibble: 40 x 4
#> # Groups:   .y [5]
#>    .y    .x    .waarde percent
#>    <ord> <ord>   <int>   <dbl>
#>  1 Fair  I1        210 0.130  
#>  2 Fair  SI2       466 0.289  
#>  3 Fair  SI1       408 0.253  
#>  4 Fair  VS2       261 0.162  
#>  5 Fair  VS1       170 0.106  
#>  6 Fair  VVS2       69 0.0429 
#>  7 Fair  VVS1       17 0.0106 
#>  8 Fair  IF          9 0.00559
#>  9 Good  I1         96 0.0196 
#> 10 Good  SI2      1081 0.220  
#> # ... with 30 more rows
```
…
